fundamentos-tarea02
…
propinas <- tips %>% 
  rename(cuenta_total = total_bill, 
         propina = tip, sexo = sex, 
         fumador = smoker,
         dia = day, momento = time, 
         num_personas = size) %>% 
  mutate(sexo = recode(sexo, Female = "Mujer", Male = "Hombre"), 
         fumador = recode(fumador, No = "No", Si = "Si"),
         dia = recode(dia, Sun = "Dom", Sat = "Sab", Thur = "Jue", Fri = "Vie"),
         momento = recode(momento, Dinner = "Cena", Lunch = "Comida")) %>% 
  select(-sexo) %>% 
  mutate(dia  = fct_relevel(dia, c("Jue", "Vie", "Sab", "Dom")))
propinas

# A tibble: 244 × 6
   cuenta_total propina fumador dia   momento num_personas
          <dbl>   <dbl> <chr>   <fct> <chr>          <dbl>
 1        17.0     1.01 No      Dom   Cena               2
 2        10.3     1.66 No      Dom   Cena               3
 3        21.0     3.5  No      Dom   Cena               3
 4        23.7     3.31 No      Dom   Cena               2
 5        24.6     3.61 No      Dom   Cena               4
 6        25.3     4.71 No      Dom   Cena               4
 7         8.77    2    No      Dom   Cena               2
 8        26.9     3.12 No      Dom   Cena               4
 9        15.0     1.96 No      Dom   Cena               2
10        14.8     3.23 No      Dom   Cena               2
# … with 234 more rows
…
print(paste0("El valor máximo de propinas es: ", max(propinas$propina)))

[1] "El valor máximo de propinas es: 10"

2. Haz una gráfica de cuantiles de la variable propina.

propinas <- propinas %>% 
  mutate(orden_propina = rank(propina, ties.method = "first"), 
         f = orden_propina - 0.5 / n())

propinas_tbl <- propinas |> select(orden_propina, f, propina) |> arrange(f)
propinas_tbl

# A tibble: 244 × 3
   orden_propina      f propina
           <int>  <dbl>   <dbl>
 1             1  0.998    1   
 2             2  2.00     1   
 3             3  3.00     1   
 4             4  4.00     1   
 5             5  5.00     1.01
 6             6  6.00     1.1 
 7             7  7.00     1.17
 8             8  8.00     1.25
 9             9  9.00     1.25
10            10 10.0      1.25
# … with 234 more rows
…
